{
    "scan": {
        "analysis": {
            "0": {
                "algorithm": "ScurveFitter",
                "storeInputHisto": 1,
                "config": {
                    "reverse": true,
                    "parametersOfInterest": [
                        "ABCs_BVT"
                    ],
                    "dumpDebugScurvePlots": true,
                    "fitParameterCuts": {
                        "chi2Min": 1e-6,
                        "chi2Max": 2.5,
                        "maxBaselineDifference": 0.1
                    }
                }
            },
            "n_count": 1
        },
        "histogrammer": {
            "0": {
                "algorithm": "OccupancyMap",
                "config": {}
            },
            "n_count": 1
        },
        "loops": [
            {
                "config": {
                    "max": 35,
                    "min": 0,
                    "step": 1,
                    "parameter": "ABCs_BVT"
                },
                "loopAction": "StdParameterLoop"
            },
            {
                "config": {
                    "trig_count": 500,
                    "trig_frequency": 250,
                    "trig_time": 0,
                    "l0_latency": 3,
                    "noInject": false
                },
                "loopAction": "StarTriggerLoop"
            },
            {
                "loopAction": "StdDataLoop"
            }
        ],
        "name": "vt50Scan",
        "prescan": {
            "ABCs_MASKHPR": 1,
            "ABCs_STOPHPR": 1,
            "HCC_MASKHPR": 1,
            "HCC_STOPHPR": 1,
            "ABCs_BCAL": 5,
            "ABCs_PR_ENABLE": 1,
            "ABCs_LP_ENABLE": 1,
            "ABCs_DETMODE": 0,
            "ABCs_CALPULSE_ENABLE": 1,
            "ABCs_CALPULSE_POLARITY": 0
        }
    }
}
